Hydroelectric Energy and Greenhouse Gas Emissions
…
## See spec(...) for full column specifications.

## Warning: 2 parsing failures.
##  row  col expected                                           actual                                            file
## 3964 Time a double Data from database: World Development Indicators '/Users/EthanMcChristian/Desktop/hydro_co2.csv'
## 3965 Time a double Last Updated: 05/19/2020                         '/Users/EthanMcChristian/Desktop/hydro_co2.csv'

Cleaning column names

hydro_data <- clean_names(hydro_data)
hydro_data

## # A tibble: 3,965 x 23
##     time time_code country_name country_code co2_emissions_m access_to_elect
##    <dbl> <chr>     <chr>        <chr>        <chr>            <chr>           
##  1  2005 YR2005    Afghanistan  AFG          0.0517439645638 23              
##  2  2005 YR2005    Albania      ALB          1.41249821101668 ..              
##  3  2005 YR2005    Algeria      DZA          3.23616827096358 ..              
##  4  2005 YR2005    American Sa ASM          ..               ..              
##  5  2005 YR2005    Andorra      AND          7.29987193629782 100             
##  6  2005 YR2005    Angola       AGO          0.9857363549999 28.2321949005127
##  7  2005 YR2005    Antigua and ATG          5.26654391456454 92.2            
##  8  2005 YR2005    Argentina    ARG          4.16812854757591 96.8673934936523
##  9  2005 YR2005    Armenia      ARM          1.46002557971119 99.8            
## 10  2005 YR2005    Aruba        ABW          27.200707780588  100             
## #  with 3,955 more rows, and 17 more variables:
## #   gni_per_capita_atlas_method_current_us_ny_gnp_pcap_cd <chr>,
## #   co2_emissions_kt_en_atm_co2e_kt <chr>,
## #   co2_emissions_from_gaseous_fuel_consumption_percent_of_total_en_atm_co2e_gf_zs <chr>,
## #   co2_emissions_from_solid_fuel_consumption_percent_of_total_en_atm_co2e_sf_zs <chr>,
## #   co2_emissions_from_liquid_fuel_consumption_percent_of_total_en_atm_co2e_lf_zs <chr>,
## #   methane_emissions_in_energy_sector_thousand_metric_tons_of_co2_equivalent_en_atm_meth_eg_kt_ce <chr>,
## #   agricultural_methane_emissions_thousand_metric_tons_of_co2_equivalent_en_atm_meth_ag_kt_ce <chr>,
## #   total_greenhouse_gas_emissions_kt_of_co2_equivalent_en_atm_ghgt_kt_ce <chr>,
…
 co2_methane_equiv.agriculture = agricultural_methane_emissions_thousand_metric_tons_of_co2_equivalent_en_atm_meth_ag_kt_ce,
 co2_total_greenhouse_equiv = total_greenhouse_gas_emissions_kt_of_co2_equivalent_en_atm_ghgt_kt_ce,
 perc_safe_water = people_using_safely_managed_drinking_water_services_percent_of_population_sh_h2o_smdw_zs,
 hydro_electric_perc = electricity_production_from_hydroelectric_sources_percent_of_total_eg_elc_hyro_zs,
 coal_electric_perc = electricity_production_from_coal_sources_percent_of_total_eg_elc_coal_zs,
 natural_gas_electric_perc = electricity_production_from_natural_gas_sources_percent_of_total_eg_elc_ngas_zs,
 nuclear_electric_perc = electricity_production_from_nuclear_sources_percent_of_total_eg_elc_nucl_zs,
 oil_gas_coal_electric_perc = electricity_production_from_oil_gas_and_coal_sources_percent_of_total_eg_elc_fosl_zs,
 renewable_electric_nohydro_perc = electricity_production_from_renewable_sources_excluding_hydroelectric_percent_of_total_eg_elc_rnwx_zs,
 electric_consumption_percap = electric_power_consumption_k_wh_per_capita_eg_use_elec_kh_pc,
 pop = population_total_sp_pop_totl
  )
hydro_data

## # A tibble: 3,965 x 23
##     time time_code country_name country_code co2_percap perc_elec gni_percap
##    <dbl> <chr>     <chr>        <chr>        <chr>      <chr>     <chr>     
##  1  2005 YR2005    Afghanistan  AFG          0.0517439 23        ..        
##  2  2005 YR2005    Albania      ALB          1.4124982 ..        2620      
##  3  2005 YR2005    Algeria      DZA          3.2361682 ..        2710      
##  4  2005 YR2005    American Sa ASM          ..         ..        ..        
##  5  2005 YR2005    Andorra      AND          7.2998719 100       ..        
##  6  2005 YR2005    Angola       AGO          0.9857363 28.23219 1370      
##  7  2005 YR2005    Antigua and ATG          5.2665439 92.2      12410     
##  8  2005 YR2005    Argentina    ARG          4.1681285 96.86739 4260      
##  9  2005 YR2005    Armenia      ARM          1.4600255 99.8      1540      
## 10  2005 YR2005    Aruba        ABW          27.200707 100       19200     
## #  with 3,955 more rows, and 16 more variables: co2_emission <chr>,
## #   perc_co2_gaseous <chr>, perc_co2_solid_fuel <chr>,
## #   perc_co2_liquid_fuel <chr>, co2_methane_equiv.energy_sector <chr>,
## #   co2_methane_equiv.agriculture <chr>, co2_total_greenhouse_equiv <chr>,
## #   perc_safe_water <chr>, hydro_electric_perc <chr>, coal_electric_perc <chr>,
## #   natural_gas_electric_perc <chr>, nuclear_electric_perc <chr>,
## #   oil_gas_coal_electric_perc <chr>, renewable_electric_nohydro_perc <chr>,
## #   electric_consumption_percap <chr>, pop <chr>
…
Deleting all rows with NAs, converting all character variables to numeric

hydro_data_subset <- hydro_data[complete.cases(hydro_data), ]
hydro_data_subset

## # A tibble: 385 x 23
##     time time_code country_name country_code co2_percap perc_elec gni_percap
##    <dbl> <chr>     <chr>        <chr>        <chr>      <chr>     <chr>     
##  1  2005 YR2005    Armenia      ARM          1.4600255 99.8      1540      
##  2  2005 YR2005    Austria      AUT          9.0201695 100       38720     
##  3  2005 YR2005    Azerbaijan   AZE          4.0918019 99.32710 1270      
##  4  2005 YR2005    Bahrain      BHR          21.602028 100       16550     
##  5  2005 YR2005    Bangladesh   BGD          0.2839484 44.23     550       
##  6  2005 YR2005    Belarus      BLR          6.1224715 100       2810      
##  7  2005 YR2005    Belgium      BEL          10.355392 100       37730     
##  8  2005 YR2005    Bosnia and  BIH          4.3035985 100       3180      
##  9  2005 YR2005    Bulgaria     BGR          6.2562820 100       3770      
## 10  2005 YR2005    Cambodia     KHM          0.2091347 20.5      460       
## #  with 375 more rows, and 16 more variables: co2_emission <chr>,
## #   perc_co2_gaseous <chr>, perc_co2_solid_fuel <chr>,
## #   perc_co2_liquid_fuel <chr>, co2_methane_equiv.energy_sector <chr>,
## #   co2_methane_equiv.agriculture <chr>, co2_total_greenhouse_equiv <chr>,
## #   perc_safe_water <chr>, hydro_electric_perc <chr>, coal_electric_perc <chr>,
## #   natural_gas_electric_perc <chr>, nuclear_electric_perc <chr>,
## #   oil_gas_coal_electric_perc <chr>, renewable_electric_nohydro_perc <chr>,
## #   electric_consumption_percap <chr>, pop <chr>
…
Converting my time values to time series data

hydro_data_subnum <- hydro_data_subnum %>%
  mutate(time = as.character(time))
hydro_data_subnum_date <- hydro_data_subnum %>%
  mutate(time = as.Date(time, "%Y"))

Adding a percapita greenhouse gas emissions in kt of co2 equivalent column.

hydro_data_new <- hydro_data_subnum_date %>%
  mutate(percap_greenhouse = co2_total_greenhouse_equiv/pop)
hydro_data_new

## # A tibble: 385 x 24
##    time       time_code country_name country_code co2_percap perc_elec
##    <date>     <chr>     <chr>        <chr>             <dbl>     <dbl>
##  1 2005-06-08 YR2005    Armenia      ARM               1.46       99.8
##  2 2005-06-08 YR2005    Austria      AUT               9.02      100  
##  3 2005-06-08 YR2005    Azerbaijan   AZE               4.09       99.3
##  4 2005-06-08 YR2005    Bahrain      BHR              21.6       100  
##  5 2005-06-08 YR2005    Bangladesh   BGD               0.284      44.2
##  6 2005-06-08 YR2005    Belarus      BLR               6.12      100  
##  7 2005-06-08 YR2005    Belgium      BEL              10.4       100  
##  8 2005-06-08 YR2005    Bosnia and  BIH               4.30      100  
##  9 2005-06-08 YR2005    Bulgaria     BGR               6.26      100  
## 10 2005-06-08 YR2005    Cambodia     KHM               0.209      20.5
## #  with 375 more rows, and 18 more variables: gni_percap <dbl>,
## #   co2_emission <dbl>, perc_co2_gaseous <dbl>, perc_co2_solid_fuel <dbl>,
## #   perc_co2_liquid_fuel <dbl>, co2_methane_equiv.energy_sector <dbl>,
## #   co2_methane_equiv.agriculture <dbl>, co2_total_greenhouse_equiv <dbl>,
## #   perc_safe_water <dbl>, hydro_electric_perc <dbl>, coal_electric_perc <dbl>,
## #   natural_gas_electric_perc <dbl>, nuclear_electric_perc <dbl>,
## #   oil_gas_coal_electric_perc <dbl>, renewable_electric_nohydro_perc <dbl>,
## #   electric_consumption_percap <dbl>, pop <dbl>, percap_greenhouse <dbl>
…
